<?xml version="1.0" encoding="utf-8"?>
<!-- Generator: Adobe Illustrator 16.0.0, SVG Export Plug-In . SVG Version: 6.00 Build 0)  -->
<!DOCTYPE svg PUBLIC "-//W3C//DTD SVG 1.1//EN" "http://www.w3.org/Graphics/SVG/1.1/DTD/svg11.dtd">
<svg version="1.1" id="Layer_1" xmlns="http://www.w3.org/2000/svg" xmlns:xlink="http://www.w3.org/1999/xlink" x="0px" y="0px"
	 width="185px" height="50px" viewBox="0 0 185 50" enable-background="new 0 0 185 50" xml:space="preserve">
<g>
	<g>
		<path fill="#139FDA" d="M100.754,43.637h3.43v0.633h-3.43v2.62h-0.74v-5.971h4.498v0.633h-3.758V43.637z"/>
	</g>
	<g>
		<path fill="#139FDA" d="M114.324,44.252c0,0.814-0.24,1.473-0.717,1.975c-0.479,0.502-1.111,0.753-1.898,0.753
			c-0.793,0-1.432-0.251-1.916-0.753s-0.727-1.16-0.727-1.975v-3.359h0.74v3.359c0,0.618,0.174,1.114,0.521,1.488
			c0.346,0.374,0.807,0.562,1.381,0.562c0.563,0,1.016-0.188,1.359-0.562s0.516-0.87,0.516-1.488v-3.359h0.74V44.252z"/>
	</g>
	<g>
		<path fill="#139FDA" d="M123.643,46.953l-2.398-2.558h-1.152v2.558h-0.74v-5.971h2.904c0.611,0,1.107,0.156,1.484,0.468
			c0.379,0.313,0.566,0.724,0.566,1.234s-0.188,0.924-0.566,1.238c-0.377,0.315-0.873,0.473-1.484,0.473h-0.113l2.428,2.558H123.643
			z M122.256,43.754c0.393,0,0.711-0.098,0.951-0.294s0.359-0.454,0.359-0.775c0-0.32-0.119-0.579-0.359-0.775
			c-0.24-0.195-0.559-0.294-0.951-0.294h-2.164v2.139H122.256z"/>
	</g>
	<g>
		<path fill="#139FDA" d="M134.453,46.953h-0.639l-4.104-4.741v4.741h-0.74v-5.971h0.639l4.104,4.794v-4.794h0.74V46.953z"/>
	</g>
	<g>
		<path fill="#139FDA" d="M139.471,46.899v-5.971h0.74v5.971H139.471z"/>
	</g>
	<g>
		<path fill="#139FDA" d="M148.119,41.462V46.8h-0.748v-5.338h-2.334v-0.633h5.406v0.633H148.119z"/>
	</g>
	<g>
		<path fill="#139FDA" d="M160.188,44.39c0,0.814-0.238,1.473-0.717,1.975s-1.109,0.753-1.896,0.753
			c-0.793,0-1.432-0.251-1.916-0.753s-0.727-1.16-0.727-1.975V41.03h0.74v3.359c0,0.618,0.174,1.114,0.52,1.488
			c0.348,0.375,0.809,0.562,1.383,0.562c0.563,0,1.014-0.187,1.357-0.562c0.344-0.374,0.516-0.87,0.516-1.488V41.03h0.74V44.39z"/>
	</g>
	<g>
		<path fill="#139FDA" d="M169.521,47.147l-2.398-2.558h-1.152v2.558h-0.74v-5.971h2.904c0.611,0,1.107,0.156,1.484,0.468
			c0.379,0.313,0.566,0.724,0.566,1.234s-0.188,0.924-0.566,1.239c-0.377,0.314-0.873,0.472-1.484,0.472h-0.113l2.428,2.558H169.521
			z M168.135,43.948c0.393,0,0.711-0.098,0.951-0.294s0.359-0.454,0.359-0.775c0-0.32-0.119-0.579-0.359-0.775
			s-0.559-0.294-0.951-0.294h-2.164v2.139H168.135z"/>
	</g>
	<g>
		<path fill="#139FDA" d="M179.52,47.1h-4.582v-5.971h4.572v0.633h-3.832v2.022h3.561v0.633h-3.561v2.041h3.842V47.1z"/>
	</g>
	<g>
		<path fill="#171A60" d="M25.451,35.525h-3.317v-3.357c-1.456,2.144-4.126,3.883-7.2,3.883c-5.987,0-10.436-4.895-10.436-10.921
			c0-6.027,4.449-10.962,10.436-10.962c2.994,0,5.583,1.659,7.079,3.681V5.43h3.438V35.525z M14.934,17.363
			c-3.924,0-6.998,3.479-6.998,7.807c0,4.247,3.074,7.727,6.998,7.727c3.843,0,7.079-3.479,7.079-7.727
			C22.013,20.842,18.776,17.363,14.934,17.363z"/>
	</g>
	<g>
		<path fill="#171A60" d="M50.357,29.153c-1.456,4.449-5.016,6.957-9.83,6.957c-5.987,0-10.679-4.773-10.679-10.881
			c0-6.027,4.692-10.962,10.477-10.962c5.38,0,10.558,4.45,10.517,11.853H33.328c0.445,4.328,3.762,6.877,7.2,6.877
			c2.953,0,5.057-1.416,6.189-3.843H50.357z M47.041,23.045c-0.85-3.398-3.681-5.664-6.715-5.664c-2.872,0-5.906,2.104-6.796,5.664
			H47.041z"/>
	</g>
	<g>
		<path fill="#171A60" d="M64.234,35.91c-5.744,0-10.436-4.854-10.436-10.881c0-6.027,4.692-10.962,10.436-10.962
			c4.652,0,8.292,2.751,9.708,6.958h-3.681c-1.173-2.266-3.317-3.803-6.027-3.803c-3.843,0-6.998,3.52-6.998,7.807
			s3.155,7.726,6.998,7.726c2.751,0,4.895-1.537,6.027-3.803h3.681C72.567,33.159,68.886,35.91,64.234,35.91z"/>
	</g>
	<g>
		<path fill="#171A60" d="M97.498,25.27c0,5.986-4.53,10.841-10.476,10.841c-5.906,0-10.477-4.854-10.477-10.841
			c0-6.068,4.571-11.003,10.477-11.003C92.968,14.267,97.498,19.202,97.498,25.27z M94.061,25.27c0-4.328-3.155-7.848-7.039-7.848
			c-3.843,0-6.998,3.52-6.998,7.848c0,4.247,3.155,7.686,6.998,7.686C90.906,32.955,94.061,29.517,94.061,25.27z"/>
	</g>
	<g>
		<path fill="#171A60" d="M106.178,14.774h4.732v3.277h-4.732v17.475h-3.398V18.051h-2.832v-3.277h2.832v-0.809
			c0-3.034,0.809-5.339,2.387-6.755c1.457-1.334,3.398-1.86,5.824-1.578v3.115c-1.576-0.121-2.709,0.162-3.52,0.931
			c-1.051,0.971-1.293,2.872-1.293,4.288V14.774z"/>
	</g>
	<g>
		<path fill="#171A60" d="M157.838,17.698c-3.6-0.202-6.674,1.699-6.674,5.866v12.054h-3.439V14.786h3.316v2.346
			c1.578-2.225,4.41-3.115,6.797-2.832V17.698z"/>
	</g>
	<g>
		<path fill="#171A60" d="M179.047,35.618h-3.396V22.957c0-3.196-1.781-5.542-5.098-5.542c-3.154,0-5.461,2.346-5.461,5.461v12.742
			h-3.438V14.786h3.316v2.266c1.416-1.74,3.561-2.792,6.068-2.792c5.096,0,8.008,3.641,8.008,8.818V35.618z"/>
	</g>
	<path fill-rule="evenodd" clip-rule="evenodd" fill="#171A60" d="M120.822,19.118l-3.168,2.433
		c-0.221,1.467-0.055,4.348-0.055,5.957c0,1.896-0.277,4.061,0.611,5.525c0.723,1.164,1.943,2.164,3.945,2.219h12.166
		c1.947-0.036,3.223-0.984,3.945-2.164c0.945-1.52,0.666-3.471,0.666-5.455c0-2.021,0.057-4.097,0-6.118
		c-1.055-0.59-2.109-1.806-3.221-2.396c-0.111,3.184,0,6.78,0,10.017c0,3.452,0.443,2.897-7.334,2.897
		c-7.611,0-7.557,0.607-7.557-2.646C120.822,25.969,120.822,22.534,120.822,19.118z"/>
	<path fill-rule="evenodd" clip-rule="evenodd" fill="#139FDA" d="M128.322,10.658l8.557,6.725c0.723,0.591,5.891,4.83,6.555,4.955
		c1.002,0.178,2.002-0.787,1.836-1.896c-0.111-0.859-1.168-1.503-1.779-1.969l-10.777-8.477c-5.334-4.186-3.668-3.971-9.002,0.088
		l-10.777,8.479c-0.834,0.661-1.666,1.126-1.666,2.11c-0.057,0.983,0.887,1.859,1.832,1.663c0.779-0.161,9.611-7.352,10.889-8.353
		c0.725-0.573,1.502-1.163,2.168-1.699C126.6,11.964,127.879,10.819,128.322,10.658z"/>
</g>
</svg>
