<?xml version="1.0" encoding="utf-8"?>
<!-- Generator: Adobe Illustrator 16.0.0, SVG Export Plug-In . SVG Version: 6.00 Build 0)  -->
<!DOCTYPE svg PUBLIC "-//W3C//DTD SVG 1.1//EN" "http://www.w3.org/Graphics/SVG/1.1/DTD/svg11.dtd">
<svg version="1.1" id="Layer_1" xmlns="http://www.w3.org/2000/svg" xmlns:xlink="http://www.w3.org/1999/xlink" x="0px" y="0px"
	 width="162px" height="50px" viewBox="0 0 162 50" enable-background="new 0 0 162 50" xml:space="preserve">
<g>
	<path fill="#FFFFFF" d="M4.277,14.868v5.487H0V1.165h14.571c1.37,0,2.514,0.108,3.433,0.322c0.919,0.217,1.661,0.573,2.224,1.071
		c0.563,0.497,0.961,1.138,1.196,1.927c0.234,0.788,0.352,1.745,0.352,2.87v1.661c0,1.145-0.113,2.093-0.338,2.842
		c-0.225,0.75-0.614,1.351-1.167,1.801c-0.554,0.45-1.291,0.764-2.209,0.942c-0.919,0.179-2.083,0.268-3.489,0.268H4.277z
		 M17.498,7.524c0-1.032-0.221-1.734-0.661-2.11c-0.441-0.375-1.234-0.563-2.378-0.563H4.277v6.557h10.237
		c1.125,0,1.904-0.173,2.336-0.521c0.432-0.346,0.647-1.026,0.647-2.04V7.524z"/>
	<path fill="#FFFFFF" d="M29.204,14.277v0.704c0,0.469,0.038,0.844,0.112,1.126c0.075,0.281,0.211,0.502,0.408,0.662
		c0.197,0.158,0.46,0.267,0.788,0.324c0.328,0.056,0.736,0.083,1.224,0.083h8.125v3.181h-8.125c-2.42,0-4.146-0.46-5.178-1.379
		c-1.032-0.92-1.548-2.392-1.548-4.418v-3.518c0-1.106,0.108-2.04,0.325-2.799c0.214-0.759,0.59-1.369,1.125-1.829
		c0.534-0.46,1.242-0.792,2.124-0.999c0.881-0.206,1.998-0.31,3.348-0.31h5.786c1.089,0,1.994,0.104,2.716,0.31
		s1.295,0.492,1.716,0.857c0.422,0.367,0.718,0.807,0.886,1.324c0.169,0.515,0.254,1.073,0.254,1.673v5.008H29.204z M39.098,9.607
		c0-0.508-0.127-0.845-0.38-1.013c-0.253-0.169-0.699-0.254-1.336-0.254H31.99c-0.526,0-0.966,0.024-1.323,0.071
		c-0.357,0.046-0.643,0.154-0.858,0.322c-0.216,0.169-0.371,0.414-0.464,0.732c-0.094,0.319-0.141,0.751-0.141,1.294v0.817h9.895
		V9.607z"/>
	<polygon fill="#FFFFFF" points="48.699,20.356 48.699,8.509 46.56,8.509 46.56,5.104 48.699,5.104 48.699,0.799 52.976,0.799 
		52.976,5.104 57.788,5.104 57.788,8.509 52.976,8.509 52.976,20.356 	"/>
	<path fill="#FFFFFF" d="M60.517,20.356V11.52c0-1.144,0.131-2.12,0.394-2.926c0.262-0.806,0.68-1.468,1.252-1.983
		c0.572-0.517,1.309-0.897,2.209-1.141c0.9-0.243,1.998-0.365,3.292-0.365h2.729v3.405h-2.617c-0.581,0-1.069,0.046-1.462,0.141
		c-0.394,0.093-0.708,0.253-0.943,0.478c-0.235,0.226-0.404,0.535-0.507,0.93c-0.104,0.394-0.154,0.891-0.154,1.49v8.809H60.517z"/>
	<path fill="#FFFFFF" d="M80.355,20.355c-1.408,0-2.58-0.116-3.518-0.35c-0.938-0.234-1.688-0.608-2.251-1.125
		c-0.563-0.515-0.962-1.189-1.196-2.021c-0.235-0.833-0.351-1.859-0.351-3.077v-2.05c0-1.217,0.116-2.248,0.351-3.09
		c0.234-0.841,0.634-1.52,1.196-2.036c0.563-0.514,1.313-0.889,2.251-1.123c0.938-0.234,2.11-0.352,3.518-0.352h4.3
		c1.425,0,2.607,0.118,3.546,0.352c0.938,0.233,1.688,0.613,2.251,1.137s0.961,1.207,1.195,2.051C91.882,9.514,92,10.544,92,11.761
		v2.021c0,1.218-0.118,2.244-0.353,3.077c-0.234,0.833-0.632,1.506-1.195,2.021c-0.563,0.516-1.313,0.891-2.251,1.125
		c-0.938,0.233-2.121,0.35-3.546,0.35H80.355z M87.807,11.847c0-0.635-0.052-1.159-0.154-1.57c-0.104-0.412-0.291-0.734-0.563-0.968
		c-0.272-0.233-0.653-0.393-1.141-0.478c-0.488-0.083-1.106-0.125-1.857-0.125h-3.173c-0.751,0-1.365,0.042-1.844,0.125
		c-0.478,0.085-0.854,0.244-1.125,0.478c-0.272,0.234-0.46,0.556-0.563,0.968c-0.104,0.411-0.154,0.935-0.154,1.57v1.795
		c0,0.635,0.051,1.154,0.154,1.557c0.103,0.402,0.291,0.719,0.563,0.952c0.271,0.234,0.647,0.399,1.125,0.492
		c0.479,0.093,1.092,0.14,1.844,0.14h3.173c0.751,0,1.369-0.046,1.857-0.14c0.487-0.093,0.868-0.258,1.141-0.492
		c0.271-0.233,0.459-0.549,0.563-0.952c0.103-0.402,0.154-0.921,0.154-1.557V11.847z"/>
	<path fill="#FFFFFF" d="M31.155,39.746c-1.184,0-2.171-0.1-2.96-0.297s-1.42-0.514-1.894-0.947
		c-0.473-0.434-0.81-1.002-1.007-1.705c-0.197-0.701-0.296-1.566-0.296-2.592v-5.068c0-1.01,0.099-1.871,0.296-2.58
		c0.197-0.711,0.534-1.282,1.007-1.717c0.474-0.434,1.105-0.75,1.894-0.947c0.789-0.198,1.776-0.296,2.96-0.296h9.865v3.101h-9.699
		c-0.553,0-1.007,0.044-1.362,0.13c-0.355,0.088-0.636,0.232-0.84,0.438c-0.206,0.205-0.348,0.479-0.427,0.818
		s-0.119,0.754-0.119,1.242v4.736c0,0.506,0.04,0.924,0.119,1.256c0.079,0.33,0.221,0.598,0.427,0.805
		c0.204,0.205,0.489,0.346,0.852,0.426c0.363,0.08,0.82,0.119,1.374,0.119h9.675v3.078H31.155z"/>
	<path fill="#FFFFFF" d="M49.97,39.746c-1.184,0-2.171-0.1-2.96-0.297s-1.42-0.514-1.894-0.947c-0.473-0.434-0.81-1.002-1.006-1.705
		c-0.197-0.701-0.296-1.566-0.296-2.592v-5.068c0-1.01,0.099-1.871,0.296-2.58c0.197-0.711,0.533-1.282,1.006-1.717
		c0.474-0.434,1.105-0.75,1.894-0.947c0.789-0.198,1.776-0.296,2.96-0.296h4.798c1.2,0,2.194,0.098,2.983,0.296
		c0.789,0.197,1.42,0.513,1.895,0.947c0.474,0.435,0.808,1.006,1.006,1.717c0.197,0.709,0.296,1.57,0.296,2.58v5.068
		c0,1.025-0.1,1.891-0.296,2.592c-0.198,0.703-0.532,1.271-1.006,1.705c-0.474,0.434-1.105,0.75-1.895,0.947
		c-0.79,0.197-1.784,0.297-2.983,0.297H49.97z M57.349,29.303c0-0.506-0.044-0.924-0.131-1.256c-0.087-0.33-0.232-0.6-0.438-0.805
		c-0.206-0.205-0.485-0.346-0.841-0.426c-0.355-0.078-0.793-0.118-1.314-0.118h-4.489c-0.568,0-1.031,0.04-1.386,0.118
		c-0.355,0.08-0.635,0.221-0.84,0.426c-0.206,0.205-0.343,0.475-0.415,0.805c-0.071,0.332-0.106,0.75-0.106,1.256v4.76
		c0,0.521,0.035,0.951,0.106,1.291c0.072,0.34,0.209,0.605,0.415,0.805c0.205,0.197,0.485,0.332,0.84,0.402s0.817,0.107,1.386,0.107
		h4.489c0.521,0,0.959-0.037,1.314-0.107c0.355-0.07,0.635-0.205,0.841-0.402c0.205-0.199,0.351-0.465,0.438-0.805
		c0.086-0.34,0.131-0.77,0.131-1.291V29.303z"/>
	<path fill="#FFFFFF" d="M81.263,40.102c-0.378,0-0.73-0.061-1.054-0.18c-0.324-0.117-0.627-0.311-0.911-0.58L67.53,28.262v11.484
		h-3.338V24.733c0-0.505,0.178-0.881,0.532-1.125c0.356-0.244,0.817-0.367,1.386-0.367c0.41,0,0.75,0.055,1.018,0.166
		s0.489,0.252,0.663,0.426L79.653,35.27V23.597h3.409v15.012c0,0.537-0.166,0.92-0.497,1.148S81.801,40.102,81.263,40.102"/>
	<path fill="#FFFFFF" d="M103.45,40.102c-0.38,0-0.73-0.061-1.055-0.18c-0.324-0.117-0.627-0.311-0.91-0.58l-11.769-11.08v11.484
		h-3.339V24.733c0-0.505,0.178-0.881,0.532-1.125s0.817-0.367,1.386-0.367c0.41,0,0.749,0.055,1.019,0.166
		c0.268,0.11,0.488,0.252,0.663,0.426L101.84,35.27V23.597h3.409v15.012c0,0.537-0.165,0.92-0.497,1.148
		S103.986,40.102,103.45,40.102"/>
	<path fill="#FFFFFF" d="M114.626,39.746c-1.185,0-2.172-0.1-2.959-0.297c-0.79-0.197-1.421-0.514-1.896-0.947
		c-0.474-0.434-0.809-1.002-1.007-1.705c-0.196-0.701-0.295-1.566-0.295-2.592v-5.068c0-1.01,0.099-1.871,0.295-2.58
		c0.198-0.711,0.533-1.282,1.007-1.717c0.475-0.434,1.105-0.75,1.896-0.947c0.787-0.198,1.774-0.296,2.959-0.296h5.98v3.055h-5.98
		c-0.521,0-0.947,0.043-1.278,0.129c-0.331,0.088-0.597,0.225-0.793,0.414c-0.198,0.189-0.333,0.443-0.403,0.758
		c-0.07,0.316-0.106,0.711-0.106,1.184v1.09h12.421v2.863h-12.421v1.139c0,0.488,0.036,0.891,0.106,1.207s0.201,0.566,0.392,0.758
		c0.188,0.189,0.452,0.32,0.792,0.391c0.339,0.072,0.771,0.107,1.291,0.107h9.936v3.055H114.626z"/>
	<path fill="#FFFFFF" d="M133.512,39.746c-1.185,0-2.171-0.1-2.96-0.297s-1.421-0.514-1.895-0.947
		c-0.473-0.434-0.81-1.002-1.007-1.705c-0.196-0.701-0.294-1.566-0.294-2.592v-5.068c0-1.01,0.098-1.871,0.294-2.58
		c0.197-0.711,0.534-1.282,1.007-1.717c0.474-0.434,1.105-0.75,1.895-0.947c0.789-0.198,1.775-0.296,2.96-0.296h9.197v3.101h-9.031
		c-0.554,0-1.007,0.044-1.361,0.13c-0.355,0.088-0.636,0.232-0.841,0.438s-0.348,0.479-0.427,0.818s-0.118,0.754-0.118,1.242v4.736
		c0,0.506,0.039,0.924,0.118,1.256c0.079,0.33,0.222,0.598,0.427,0.805c0.205,0.205,0.488,0.346,0.852,0.426
		c0.364,0.08,0.821,0.119,1.373,0.119h9.009v3.078H133.512z"/>
	<polygon fill="#FFFFFF" points="152.113,39.746 152.113,26.698 144.891,26.698 144.891,23.597 161.841,23.597 161.841,26.698 
		155.736,26.698 155.736,39.746 	"/>
	<path fill="#FFFFFF" d="M46.247,44.033l-0.128,0.527h0.014c0.18-0.236,0.367-0.398,0.559-0.484s0.412-0.129,0.658-0.129
		c0.237,0,0.445,0.037,0.623,0.111s0.329,0.176,0.452,0.311c0.123,0.133,0.216,0.291,0.278,0.477
		c0.061,0.184,0.092,0.389,0.092,0.611c0,0.281-0.046,0.559-0.139,0.836c-0.092,0.277-0.225,0.527-0.398,0.752
		c-0.173,0.221-0.387,0.402-0.641,0.539c-0.254,0.139-0.542,0.209-0.864,0.209c-0.11,0-0.225-0.012-0.346-0.031
		c-0.121-0.018-0.235-0.053-0.341-0.102c-0.107-0.051-0.202-0.117-0.285-0.199c-0.083-0.082-0.141-0.188-0.174-0.311h-0.015
		L45.2,49.115h-0.59l1.068-5.082H46.247z M47.965,44.746c-0.149-0.176-0.391-0.264-0.723-0.264c-0.228,0-0.432,0.059-0.612,0.178
		c-0.181,0.119-0.332,0.268-0.452,0.449c-0.121,0.18-0.214,0.375-0.278,0.59c-0.063,0.213-0.096,0.418-0.096,0.613
		c0,0.273,0.079,0.502,0.238,0.684c0.159,0.18,0.388,0.27,0.687,0.27c0.241,0,0.453-0.057,0.633-0.168s0.333-0.254,0.455-0.432
		c0.124-0.176,0.216-0.369,0.278-0.584c0.062-0.211,0.093-0.422,0.093-0.625C48.189,45.158,48.115,44.922,47.965,44.746"/>
	<path fill="#FFFFFF" d="M49.787,45.393c0.092-0.279,0.228-0.525,0.405-0.738c0.178-0.215,0.394-0.385,0.648-0.514
		c0.254-0.127,0.542-0.193,0.864-0.193c0.499,0,0.878,0.131,1.139,0.389c0.261,0.26,0.392,0.637,0.392,1.135
		c0,0.301-0.045,0.588-0.136,0.869c-0.09,0.279-0.223,0.527-0.398,0.744c-0.176,0.215-0.39,0.387-0.641,0.516
		c-0.251,0.129-0.539,0.193-0.86,0.193c-0.242,0-0.459-0.039-0.651-0.115c-0.193-0.076-0.354-0.182-0.488-0.316
		c-0.132-0.135-0.235-0.297-0.306-0.484c-0.07-0.188-0.106-0.393-0.106-0.615C49.648,45.963,49.694,45.672,49.787,45.393
		 M50.51,46.988c0.17,0.184,0.422,0.277,0.753,0.277c0.223,0,0.419-0.059,0.587-0.172c0.169-0.113,0.311-0.256,0.428-0.432
		c0.116-0.172,0.204-0.359,0.263-0.564c0.06-0.203,0.089-0.395,0.089-0.576c0-0.143-0.02-0.277-0.057-0.406
		c-0.038-0.129-0.098-0.238-0.178-0.33s-0.181-0.166-0.302-0.221c-0.121-0.055-0.265-0.082-0.431-0.082
		c-0.232,0-0.437,0.057-0.612,0.172c-0.175,0.111-0.323,0.256-0.441,0.43c-0.118,0.174-0.208,0.363-0.267,0.572
		c-0.059,0.209-0.089,0.408-0.089,0.598C50.252,46.559,50.338,46.803,50.51,46.988"/>
	<polygon fill="#FFFFFF" points="56.85,47.713 56.665,44.852 56.65,44.852 55.333,47.713 54.693,47.713 54.259,44.033 54.9,44.033 
		55.127,46.959 55.142,46.959 56.465,44.033 57.148,44.033 57.326,46.959 57.34,46.959 58.735,44.033 59.39,44.033 57.489,47.713 	
		"/>
	<path fill="#FFFFFF" d="M60.4,46.375c0,0.143,0.026,0.27,0.078,0.381c0.052,0.111,0.124,0.203,0.214,0.277
		c0.09,0.074,0.192,0.131,0.306,0.17c0.114,0.043,0.232,0.063,0.356,0.063c0.271,0,0.494-0.063,0.669-0.182
		c0.176-0.121,0.306-0.297,0.392-0.523h0.604c-0.047,0.203-0.123,0.383-0.228,0.537c-0.104,0.154-0.23,0.283-0.377,0.385
		c-0.147,0.102-0.311,0.18-0.491,0.23c-0.181,0.051-0.37,0.08-0.569,0.08c-0.304,0-0.556-0.049-0.758-0.141
		c-0.201-0.094-0.361-0.211-0.479-0.355c-0.118-0.145-0.202-0.303-0.25-0.477c-0.047-0.174-0.071-0.342-0.071-0.502
		c0-0.352,0.05-0.672,0.153-0.965c0.102-0.291,0.24-0.541,0.413-0.75c0.173-0.209,0.375-0.369,0.604-0.484
		c0.23-0.113,0.471-0.172,0.723-0.172c0.54,0,0.935,0.145,1.184,0.43c0.25,0.283,0.375,0.684,0.375,1.201
		c0,0.094-0.007,0.186-0.021,0.27c-0.015,0.086-0.026,0.154-0.036,0.207h-2.769C60.407,46.158,60.4,46.266,60.4,46.375
		 M62.617,45.141c-0.026-0.127-0.074-0.236-0.143-0.334c-0.068-0.098-0.16-0.176-0.273-0.236c-0.114-0.059-0.254-0.088-0.42-0.088
		c-0.176,0-0.333,0.027-0.473,0.082c-0.14,0.055-0.262,0.129-0.366,0.225c-0.105,0.094-0.193,0.205-0.264,0.33
		c-0.071,0.125-0.128,0.26-0.171,0.402h2.135C62.651,45.393,62.643,45.268,62.617,45.141"/>
	<path fill="#FFFFFF" d="M65.204,44.033l-0.178,0.791h0.014c0.143-0.252,0.324-0.461,0.545-0.625
		c0.22-0.168,0.484-0.252,0.793-0.252c0.038,0,0.074-0.002,0.106-0.006c0.033-0.004,0.069-0.002,0.107,0.006l-0.142,0.648
		c-0.019-0.004-0.05-0.006-0.093-0.006h-0.085c-0.075,0-0.137,0-0.185,0.002c-0.047,0.004-0.106,0.014-0.178,0.031
		c-0.166,0.045-0.314,0.119-0.444,0.223c-0.13,0.105-0.243,0.23-0.338,0.375c-0.081,0.119-0.145,0.26-0.192,0.42
		c-0.048,0.158-0.085,0.307-0.114,0.443l-0.348,1.629h-0.598l0.762-3.68H65.204z"/>
	<path fill="#FFFFFF" d="M67.965,44.033l-0.769,3.68h-0.598l0.761-3.68H67.965z M67.494,43.373l0.157-0.74h0.611l-0.156,0.74H67.494
		z"/>
	<path fill="#FFFFFF" d="M69.886,44.033l-0.114,0.557h0.014c0.152-0.213,0.344-0.375,0.577-0.48
		c0.232-0.107,0.477-0.162,0.733-0.162c0.346,0,0.604,0.078,0.771,0.229c0.169,0.152,0.253,0.393,0.253,0.719
		c0,0.082-0.009,0.186-0.028,0.314c-0.019,0.127-0.045,0.262-0.078,0.404l-0.448,2.1h-0.605l0.47-2.148
		c0.005-0.037,0.012-0.082,0.021-0.133c0.01-0.049,0.019-0.102,0.028-0.156c0.01-0.055,0.019-0.105,0.025-0.156
		s0.011-0.09,0.011-0.125c0-0.176-0.062-0.305-0.186-0.387c-0.123-0.084-0.275-0.125-0.455-0.125c-0.166,0-0.331,0.039-0.495,0.121
		c-0.164,0.08-0.302,0.182-0.417,0.307c-0.109,0.094-0.194,0.209-0.255,0.344c-0.062,0.135-0.112,0.277-0.15,0.424l-0.427,2.035
		h-0.598l0.769-3.68H69.886z"/>
	<path fill="#FFFFFF" d="M76.005,47.725c-0.047,0.172-0.097,0.322-0.149,0.451c-0.156,0.369-0.374,0.633-0.654,0.789
		c-0.28,0.158-0.619,0.234-1.018,0.234c-0.189,0-0.371-0.02-0.544-0.063s-0.327-0.109-0.458-0.199
		c-0.133-0.092-0.241-0.207-0.325-0.352c-0.082-0.146-0.127-0.32-0.131-0.525h0.597c0.01,0.125,0.042,0.225,0.096,0.303
		c0.055,0.08,0.124,0.141,0.206,0.186c0.083,0.047,0.179,0.076,0.289,0.092c0.109,0.018,0.221,0.027,0.335,0.027
		c0.231,0,0.423-0.045,0.572-0.129c0.149-0.086,0.271-0.197,0.367-0.336c0.095-0.137,0.17-0.295,0.224-0.473
		c0.055-0.178,0.105-0.355,0.153-0.537l-0.015-0.014c-0.132,0.199-0.299,0.34-0.498,0.426c-0.2,0.086-0.415,0.129-0.648,0.129
		c-0.227,0-0.428-0.037-0.601-0.109c-0.173-0.074-0.317-0.18-0.431-0.313c-0.114-0.137-0.2-0.297-0.26-0.482
		c-0.059-0.184-0.089-0.389-0.089-0.611c0-0.271,0.044-0.541,0.132-0.811c0.088-0.271,0.214-0.514,0.377-0.73
		c0.164-0.215,0.364-0.391,0.602-0.525c0.237-0.137,0.505-0.205,0.804-0.205c0.137,0,0.269,0.02,0.395,0.055
		c0.125,0.035,0.242,0.084,0.349,0.15c0.106,0.063,0.196,0.143,0.27,0.234s0.125,0.195,0.153,0.311v0.012h0.014l0.114-0.676h0.569
		l-0.662,3.146C76.098,47.369,76.053,47.551,76.005,47.725 M73.686,46.596c0.038,0.119,0.094,0.223,0.167,0.314
		c0.073,0.088,0.167,0.16,0.281,0.217c0.114,0.055,0.247,0.08,0.398,0.08c0.228,0,0.426-0.057,0.594-0.17
		c0.169-0.115,0.308-0.26,0.417-0.434c0.109-0.176,0.19-0.367,0.245-0.572c0.055-0.207,0.082-0.404,0.082-0.588
		c0-0.289-0.077-0.521-0.231-0.697s-0.39-0.264-0.708-0.264c-0.214,0-0.401,0.059-0.563,0.178s-0.297,0.266-0.406,0.439
		c-0.108,0.172-0.192,0.359-0.249,0.561c-0.056,0.201-0.085,0.387-0.085,0.559C73.628,46.352,73.647,46.477,73.686,46.596"/>
	<path fill="#FFFFFF" d="M81.955,44.033l-0.114,0.535h-0.733l-0.455,2.164c-0.005,0.041-0.01,0.082-0.015,0.119
		c-0.005,0.039-0.007,0.08-0.007,0.121c0,0.096,0.036,0.16,0.11,0.197c0.074,0.033,0.157,0.053,0.252,0.053
		c0.062,0,0.122-0.006,0.179-0.02c0.057-0.01,0.113-0.025,0.17-0.047l-0.106,0.557c-0.071,0.008-0.143,0.018-0.213,0.025
		c-0.071,0.008-0.143,0.012-0.214,0.012c-0.115,0-0.22-0.01-0.321-0.025c-0.099-0.018-0.186-0.049-0.259-0.094
		c-0.074-0.045-0.133-0.104-0.178-0.18s-0.067-0.176-0.067-0.295c0-0.051,0.003-0.1,0.01-0.148c0.007-0.045,0.016-0.098,0.025-0.156
		l0.484-2.283h-0.619l0.114-0.535h0.619l0.228-1.088h0.606l-0.228,1.088H81.955z"/>
	<path fill="#FFFFFF" d="M83.89,42.633l-0.435,1.941l0.015,0.016c0.151-0.213,0.345-0.375,0.576-0.48
		c0.233-0.107,0.478-0.162,0.733-0.162c0.347,0,0.604,0.076,0.771,0.229s0.253,0.393,0.253,0.719c0,0.082-0.009,0.186-0.028,0.314
		c-0.019,0.127-0.045,0.262-0.078,0.404l-0.448,2.1h-0.605l0.47-2.148c0.006-0.037,0.013-0.082,0.022-0.133
		c0.009-0.049,0.019-0.102,0.027-0.156c0.01-0.055,0.019-0.105,0.025-0.156s0.011-0.09,0.011-0.125c0-0.176-0.063-0.305-0.186-0.387
		c-0.124-0.084-0.274-0.125-0.455-0.125c-0.166,0-0.331,0.039-0.494,0.121c-0.164,0.08-0.303,0.182-0.417,0.307
		c-0.108,0.094-0.194,0.209-0.256,0.344s-0.111,0.277-0.149,0.424l-0.427,2.035h-0.598l1.066-5.08H83.89z"/>
	<path fill="#FFFFFF" d="M87.234,46.375c0,0.143,0.026,0.27,0.078,0.381c0.053,0.111,0.123,0.203,0.214,0.277
		c0.09,0.074,0.191,0.131,0.306,0.17c0.113,0.043,0.232,0.063,0.355,0.063c0.271,0,0.494-0.063,0.67-0.182
		c0.175-0.121,0.305-0.297,0.391-0.523h0.604c-0.047,0.203-0.123,0.383-0.227,0.537c-0.104,0.154-0.231,0.283-0.378,0.385
		s-0.311,0.18-0.491,0.23c-0.18,0.051-0.369,0.08-0.569,0.08c-0.303,0-0.556-0.049-0.758-0.141c-0.201-0.094-0.361-0.211-0.48-0.355
		c-0.118-0.145-0.201-0.303-0.249-0.477c-0.047-0.174-0.07-0.342-0.07-0.502c0-0.352,0.051-0.672,0.153-0.965
		c0.101-0.291,0.239-0.541,0.412-0.75s0.375-0.369,0.604-0.484c0.23-0.113,0.471-0.172,0.723-0.172c0.541,0,0.936,0.145,1.185,0.43
		c0.249,0.283,0.374,0.684,0.374,1.201c0,0.094-0.008,0.186-0.021,0.27c-0.015,0.086-0.026,0.154-0.035,0.207h-2.769
		C87.241,46.158,87.234,46.266,87.234,46.375 M89.451,45.141c-0.026-0.127-0.073-0.236-0.143-0.334
		c-0.068-0.098-0.16-0.176-0.274-0.236c-0.113-0.059-0.253-0.088-0.419-0.088c-0.176,0-0.333,0.027-0.474,0.082
		c-0.14,0.055-0.262,0.129-0.366,0.225c-0.104,0.094-0.192,0.205-0.264,0.33s-0.128,0.26-0.17,0.402h2.134
		C89.485,45.393,89.477,45.268,89.451,45.141"/>
	<path fill="#FFFFFF" d="M93.29,44.568l0.107-0.535h0.625c0.048-0.184,0.092-0.365,0.132-0.539c0.041-0.176,0.099-0.332,0.175-0.467
		s0.182-0.244,0.316-0.326c0.136-0.084,0.324-0.125,0.565-0.125c0.086,0,0.172,0.004,0.256,0.01
		c0.086,0.006,0.169,0.023,0.251,0.047l-0.101,0.512c-0.052-0.008-0.103-0.018-0.15-0.025c-0.047-0.008-0.092-0.01-0.135-0.01
		c-0.147,0-0.261,0.027-0.342,0.082c-0.08,0.055-0.144,0.125-0.188,0.213s-0.077,0.186-0.1,0.297
		c-0.021,0.107-0.048,0.221-0.081,0.332h0.704l-0.1,0.535h-0.712l-0.676,3.145h-0.604l0.683-3.145H93.29z"/>
	<path fill="#FFFFFF" d="M97.873,47.713l0.113-0.557h-0.015c-0.151,0.215-0.343,0.373-0.576,0.479
		c-0.231,0.105-0.476,0.158-0.732,0.158c-0.347,0-0.604-0.076-0.771-0.227c-0.169-0.148-0.253-0.387-0.253-0.715
		c0-0.08,0.01-0.186,0.028-0.313c0.02-0.127,0.045-0.264,0.077-0.404l0.449-2.102h0.604l-0.47,2.15
		c-0.01,0.033-0.02,0.076-0.028,0.129c-0.009,0.051-0.019,0.104-0.028,0.158s-0.017,0.107-0.021,0.158
		c-0.005,0.049-0.008,0.09-0.008,0.123c0,0.176,0.062,0.307,0.187,0.389c0.123,0.082,0.274,0.125,0.454,0.125
		c0.172,0,0.329-0.033,0.474-0.1s0.274-0.156,0.388-0.268c0.114-0.111,0.211-0.24,0.288-0.385c0.08-0.145,0.135-0.293,0.168-0.443
		l0.427-2.037h0.604l-0.774,3.68H97.873z"/>
	<path fill="#FFFFFF" d="M100.52,46.375c0,0.143,0.026,0.27,0.077,0.381c0.055,0.111,0.124,0.203,0.215,0.277
		c0.09,0.074,0.191,0.131,0.306,0.17c0.114,0.043,0.233,0.063,0.355,0.063c0.271,0,0.493-0.063,0.67-0.182
		c0.175-0.121,0.306-0.297,0.391-0.523h0.605c-0.048,0.203-0.124,0.383-0.228,0.537c-0.104,0.154-0.231,0.283-0.378,0.385
		s-0.31,0.18-0.491,0.23c-0.18,0.051-0.37,0.08-0.569,0.08c-0.304,0-0.556-0.049-0.758-0.141c-0.201-0.094-0.36-0.211-0.48-0.355
		c-0.118-0.145-0.201-0.303-0.248-0.477c-0.048-0.174-0.071-0.342-0.071-0.502c0-0.352,0.052-0.672,0.152-0.965
		c0.103-0.291,0.24-0.541,0.413-0.75s0.374-0.369,0.604-0.484c0.231-0.113,0.472-0.172,0.723-0.172c0.541,0,0.937,0.145,1.186,0.43
		c0.249,0.283,0.373,0.684,0.373,1.201c0,0.094-0.007,0.186-0.021,0.27c-0.015,0.086-0.026,0.154-0.036,0.207h-2.768
		C100.526,46.158,100.52,46.266,100.52,46.375 M102.736,45.141c-0.025-0.127-0.073-0.236-0.143-0.334
		c-0.068-0.098-0.159-0.176-0.274-0.236c-0.113-0.059-0.253-0.088-0.42-0.088c-0.175,0-0.332,0.027-0.473,0.082
		s-0.263,0.129-0.366,0.225c-0.104,0.094-0.192,0.205-0.264,0.33s-0.127,0.26-0.17,0.402h2.134
		C102.771,45.393,102.763,45.268,102.736,45.141"/>
	<polygon fill="#FFFFFF" points="105.657,42.633 104.59,47.713 103.992,47.713 105.053,42.633 	"/>
	<path fill="#FFFFFF" d="M109.593,44.033l-0.178,0.791h0.015c0.142-0.252,0.323-0.461,0.543-0.625
		c0.221-0.168,0.485-0.252,0.794-0.252c0.039,0,0.073-0.002,0.106-0.006s0.07-0.002,0.106,0.006l-0.142,0.648
		c-0.019-0.004-0.05-0.006-0.093-0.006h-0.086c-0.075,0-0.137,0-0.185,0.002c-0.047,0.004-0.106,0.014-0.178,0.031
		c-0.166,0.045-0.314,0.119-0.444,0.223c-0.131,0.105-0.244,0.23-0.337,0.375c-0.081,0.119-0.146,0.26-0.194,0.42
		c-0.047,0.158-0.085,0.307-0.113,0.443l-0.348,1.629h-0.599l0.761-3.68H109.593z"/>
	<path fill="#FFFFFF" d="M111.563,46.375c0,0.143,0.026,0.27,0.079,0.381c0.051,0.111,0.122,0.203,0.213,0.277
		c0.09,0.074,0.191,0.131,0.307,0.17c0.113,0.043,0.23,0.063,0.356,0.063c0.27,0,0.492-0.063,0.667-0.182
		c0.177-0.121,0.307-0.297,0.393-0.523h0.604c-0.047,0.203-0.123,0.383-0.226,0.537c-0.105,0.154-0.232,0.283-0.378,0.385
		c-0.147,0.102-0.312,0.18-0.491,0.23c-0.182,0.051-0.371,0.08-0.568,0.08c-0.305,0-0.558-0.049-0.76-0.141
		c-0.201-0.094-0.362-0.211-0.479-0.355c-0.118-0.145-0.202-0.303-0.25-0.477c-0.047-0.174-0.07-0.342-0.07-0.502
		c0-0.352,0.05-0.672,0.153-0.965c0.101-0.291,0.239-0.541,0.412-0.75c0.174-0.209,0.375-0.369,0.604-0.484
		c0.229-0.113,0.47-0.172,0.723-0.172c0.541,0,0.935,0.145,1.186,0.43c0.247,0.283,0.372,0.684,0.372,1.201
		c0,0.094-0.007,0.186-0.021,0.27c-0.014,0.086-0.025,0.154-0.035,0.207h-2.768C111.571,46.158,111.563,46.266,111.563,46.375
		 M113.779,45.141c-0.024-0.127-0.072-0.236-0.142-0.334c-0.068-0.098-0.16-0.176-0.273-0.236c-0.114-0.059-0.255-0.088-0.421-0.088
		c-0.175,0-0.332,0.027-0.472,0.082s-0.263,0.129-0.367,0.225c-0.104,0.094-0.192,0.205-0.264,0.33s-0.128,0.26-0.17,0.402h2.135
		C113.814,45.393,113.806,45.268,113.779,45.141"/>
	<path fill="#FFFFFF" d="M117.371,44.033l-0.114,0.535h-0.733l-0.455,2.164c-0.005,0.041-0.01,0.082-0.015,0.119
		c-0.005,0.039-0.008,0.08-0.008,0.121c0,0.096,0.037,0.16,0.11,0.197c0.074,0.033,0.158,0.053,0.253,0.053
		c0.062,0,0.121-0.006,0.179-0.02c0.057-0.01,0.113-0.025,0.17-0.047l-0.105,0.557c-0.071,0.008-0.143,0.018-0.214,0.025
		s-0.143,0.012-0.213,0.012c-0.116,0-0.222-0.01-0.322-0.025c-0.098-0.018-0.186-0.049-0.26-0.094
		c-0.073-0.045-0.133-0.104-0.177-0.18c-0.045-0.076-0.068-0.176-0.068-0.295c0-0.051,0.004-0.1,0.012-0.148
		c0.008-0.045,0.016-0.098,0.025-0.156l0.483-2.283H115.3l0.113-0.535h0.619l0.228-1.088h0.605l-0.228,1.088H117.371z"/>
	<path fill="#FFFFFF" d="M118.228,44.613c0.098-0.148,0.217-0.273,0.359-0.371c0.142-0.102,0.303-0.176,0.484-0.223
		c0.179-0.047,0.366-0.072,0.562-0.072c0.181,0,0.351,0.016,0.513,0.043c0.161,0.029,0.305,0.08,0.427,0.15
		c0.123,0.07,0.221,0.168,0.295,0.289c0.073,0.121,0.11,0.273,0.11,0.459c0,0.104-0.013,0.217-0.039,0.336
		c-0.026,0.121-0.051,0.232-0.074,0.332l-0.235,1.004c-0.015,0.076-0.034,0.16-0.061,0.256c-0.025,0.096-0.039,0.186-0.039,0.271
		c0,0.084,0.017,0.145,0.051,0.178c0.031,0.031,0.076,0.049,0.127,0.049c0.028,0,0.062-0.006,0.096-0.018
		c0.037-0.012,0.069-0.023,0.098-0.031l-0.093,0.447c-0.049,0.02-0.108,0.037-0.183,0.055c-0.072,0.016-0.136,0.025-0.188,0.025
		c-0.167,0-0.292-0.047-0.378-0.137s-0.119-0.215-0.101-0.377l-0.012-0.014c-0.129,0.17-0.289,0.301-0.479,0.391
		s-0.441,0.137-0.754,0.137c-0.156,0-0.303-0.02-0.438-0.055c-0.136-0.035-0.253-0.096-0.352-0.18
		c-0.101-0.082-0.18-0.188-0.238-0.318c-0.061-0.131-0.09-0.291-0.09-0.48c0-0.271,0.058-0.482,0.175-0.633
		c0.116-0.152,0.264-0.268,0.444-0.346c0.18-0.078,0.378-0.131,0.598-0.16c0.219-0.027,0.43-0.053,0.633-0.07
		c0.161-0.016,0.301-0.029,0.416-0.049c0.117-0.016,0.214-0.043,0.29-0.08c0.076-0.039,0.13-0.092,0.167-0.164
		c0.035-0.072,0.054-0.168,0.054-0.291c0-0.1-0.024-0.182-0.071-0.242c-0.048-0.061-0.108-0.111-0.179-0.146
		c-0.071-0.035-0.15-0.061-0.238-0.074c-0.087-0.016-0.172-0.021-0.253-0.021c-0.114,0-0.226,0.014-0.339,0.035
		c-0.11,0.023-0.212,0.064-0.302,0.117c-0.091,0.055-0.166,0.123-0.228,0.207c-0.062,0.082-0.103,0.186-0.12,0.303h-0.605
		C118.067,44.941,118.13,44.764,118.228,44.613 M118.398,47.137c0.136,0.084,0.287,0.129,0.459,0.129
		c0.479,0,0.822-0.162,1.033-0.484c0.098-0.139,0.167-0.287,0.201-0.449c0.035-0.162,0.074-0.326,0.117-0.498h-0.015
		c-0.086,0.063-0.192,0.105-0.323,0.133c-0.13,0.025-0.269,0.045-0.416,0.059c-0.147,0.016-0.296,0.033-0.444,0.055
		c-0.149,0.021-0.283,0.057-0.403,0.104c-0.118,0.047-0.216,0.115-0.292,0.201c-0.075,0.09-0.115,0.211-0.12,0.367
		C118.195,46.922,118.264,47.051,118.398,47.137"/>
	<path fill="#FFFFFF" d="M123.048,44.033l-0.768,3.68h-0.599l0.762-3.68H123.048z M122.579,43.373l0.157-0.74h0.611l-0.157,0.74
		H122.579z"/>
	<polygon fill="#FFFFFF" points="125.283,42.633 124.216,47.713 123.617,47.713 124.679,42.633 	"/>
	<path fill="#FFFFFF" d="M129.253,44.033l-0.769,3.68h-0.597l0.762-3.68H129.253z M128.784,43.373l0.157-0.74h0.61l-0.155,0.74
		H128.784z"/>
	<path fill="#FFFFFF" d="M131.175,44.033l-0.114,0.557h0.015c0.152-0.213,0.344-0.375,0.577-0.48
		c0.231-0.107,0.476-0.162,0.733-0.162c0.346,0,0.603,0.078,0.771,0.229c0.168,0.152,0.251,0.393,0.251,0.719
		c0,0.082-0.008,0.186-0.027,0.314c-0.019,0.127-0.046,0.262-0.078,0.404l-0.448,2.1h-0.606l0.471-2.148
		c0.006-0.037,0.013-0.082,0.021-0.133c0.01-0.049,0.02-0.102,0.028-0.156c0.01-0.055,0.019-0.105,0.024-0.156
		c0.007-0.051,0.012-0.09,0.012-0.125c0-0.176-0.063-0.305-0.185-0.387c-0.124-0.084-0.276-0.125-0.455-0.125
		c-0.167,0-0.331,0.039-0.496,0.121c-0.164,0.08-0.302,0.182-0.416,0.307c-0.108,0.094-0.194,0.209-0.256,0.344
		s-0.111,0.277-0.149,0.424l-0.428,2.035h-0.599l0.771-3.68H131.175z"/>
	<path fill="#FFFFFF" d="M136.831,47.713l0.129-0.525h-0.014c-0.181,0.236-0.368,0.396-0.56,0.48
		c-0.191,0.082-0.41,0.125-0.657,0.125c-0.233,0-0.439-0.039-0.619-0.111c-0.181-0.072-0.333-0.176-0.455-0.307
		c-0.124-0.129-0.216-0.287-0.278-0.473c-0.061-0.186-0.093-0.389-0.093-0.613c0-0.279,0.047-0.557,0.139-0.836
		c0.092-0.277,0.226-0.527,0.398-0.75c0.174-0.223,0.388-0.404,0.641-0.545c0.255-0.139,0.542-0.211,0.865-0.211
		c0.114,0,0.23,0.012,0.348,0.033c0.119,0.021,0.232,0.057,0.338,0.107c0.107,0.049,0.201,0.117,0.282,0.199s0.14,0.186,0.179,0.309
		h0.013l0.393-1.963h0.597l-1.074,5.08H136.831z M135.113,47.002c0.15,0.176,0.391,0.264,0.722,0.264
		c0.229,0,0.432-0.059,0.613-0.178c0.179-0.119,0.331-0.27,0.451-0.449c0.12-0.182,0.214-0.379,0.277-0.594
		c0.064-0.217,0.097-0.42,0.097-0.609c0-0.275-0.079-0.502-0.238-0.684c-0.158-0.18-0.388-0.27-0.688-0.27
		c-0.241,0-0.452,0.057-0.633,0.168c-0.181,0.109-0.331,0.254-0.455,0.43c-0.123,0.176-0.216,0.371-0.278,0.584
		c-0.062,0.213-0.092,0.422-0.092,0.625C134.89,46.59,134.964,46.826,135.113,47.002"/>
	<path fill="#FFFFFF" d="M141.08,47.713l0.114-0.557h-0.014c-0.151,0.215-0.345,0.373-0.576,0.479
		c-0.233,0.105-0.479,0.158-0.733,0.158c-0.347,0-0.604-0.076-0.773-0.227c-0.168-0.148-0.252-0.387-0.252-0.715
		c0-0.08,0.01-0.186,0.029-0.313c0.019-0.127,0.044-0.264,0.078-0.404l0.448-2.102h0.604l-0.469,2.15
		c-0.01,0.033-0.02,0.076-0.029,0.129c-0.01,0.051-0.02,0.104-0.028,0.158c-0.01,0.055-0.016,0.107-0.021,0.158
		c-0.005,0.049-0.008,0.09-0.008,0.123c0,0.176,0.062,0.307,0.185,0.389s0.275,0.125,0.456,0.125c0.17,0,0.328-0.033,0.474-0.1
		c0.145-0.066,0.273-0.156,0.388-0.268c0.112-0.111,0.209-0.24,0.287-0.385s0.135-0.293,0.166-0.443l0.429-2.037h0.604l-0.775,3.68
		H141.08z"/>
	<path fill="#FFFFFF" d="M145.364,44.643c-0.152-0.107-0.335-0.16-0.548-0.16c-0.091,0-0.184,0.006-0.278,0.021
		c-0.094,0.014-0.179,0.039-0.251,0.074c-0.074,0.035-0.135,0.084-0.183,0.143c-0.048,0.061-0.071,0.137-0.071,0.23
		c0,0.086,0.026,0.16,0.082,0.221c0.054,0.063,0.128,0.119,0.221,0.172c0.092,0.053,0.196,0.102,0.313,0.146
		c0.117,0.045,0.234,0.09,0.353,0.137c0.122,0.053,0.243,0.109,0.359,0.172s0.22,0.131,0.311,0.211
		c0.089,0.078,0.163,0.17,0.221,0.277c0.057,0.107,0.084,0.23,0.084,0.371c0,0.205-0.045,0.381-0.136,0.525
		c-0.09,0.145-0.205,0.262-0.349,0.352c-0.142,0.09-0.302,0.156-0.479,0.195s-0.356,0.061-0.536,0.061
		c-0.215,0-0.412-0.021-0.592-0.061c-0.181-0.039-0.335-0.107-0.466-0.203c-0.131-0.094-0.233-0.221-0.31-0.381
		c-0.075-0.158-0.114-0.355-0.114-0.594h0.599c-0.01,0.133,0.01,0.246,0.06,0.338c0.051,0.094,0.119,0.168,0.208,0.221
		c0.086,0.055,0.188,0.096,0.304,0.119c0.118,0.021,0.239,0.035,0.368,0.035c0.099,0,0.198-0.01,0.3-0.029
		c0.098-0.02,0.188-0.051,0.27-0.096s0.145-0.104,0.195-0.176c0.05-0.07,0.074-0.158,0.074-0.264c0-0.088-0.029-0.166-0.086-0.23
		s-0.13-0.121-0.221-0.174s-0.192-0.1-0.309-0.146c-0.115-0.045-0.233-0.092-0.353-0.145c-0.124-0.049-0.244-0.1-0.359-0.158
		c-0.116-0.057-0.221-0.123-0.313-0.201c-0.093-0.08-0.166-0.172-0.22-0.275c-0.056-0.104-0.083-0.225-0.083-0.363
		c0-0.17,0.04-0.32,0.118-0.455c0.078-0.131,0.182-0.242,0.31-0.33c0.127-0.088,0.273-0.156,0.438-0.203
		c0.163-0.047,0.331-0.072,0.502-0.072c0.17,0,0.338,0.021,0.505,0.063c0.166,0.041,0.314,0.105,0.444,0.199
		c0.131,0.092,0.235,0.213,0.317,0.361c0.08,0.15,0.12,0.332,0.12,0.545h-0.604C145.587,44.908,145.516,44.75,145.364,44.643"/>
	<path fill="#FFFFFF" d="M149.135,44.033l-0.113,0.535h-0.733l-0.454,2.164c-0.006,0.041-0.01,0.082-0.015,0.119
		c-0.005,0.039-0.007,0.08-0.007,0.121c0,0.096,0.037,0.16,0.11,0.197c0.073,0.033,0.157,0.053,0.253,0.053
		c0.062,0,0.12-0.006,0.177-0.02c0.058-0.01,0.115-0.025,0.171-0.047l-0.106,0.557c-0.071,0.008-0.144,0.018-0.213,0.025
		c-0.071,0.008-0.142,0.012-0.215,0.012c-0.113,0-0.22-0.01-0.319-0.025c-0.101-0.018-0.187-0.049-0.26-0.094
		s-0.133-0.104-0.18-0.18c-0.044-0.076-0.065-0.176-0.065-0.295c0-0.051,0.002-0.1,0.01-0.148c0.007-0.045,0.016-0.098,0.026-0.156
		l0.482-2.283h-0.619l0.113-0.535h0.62l0.228-1.088h0.604l-0.227,1.088H149.135z"/>
	<path fill="#FFFFFF" d="M150.729,44.033l-0.178,0.791h0.014c0.142-0.252,0.323-0.461,0.544-0.625
		c0.221-0.168,0.486-0.252,0.793-0.252c0.039,0,0.074-0.002,0.107-0.006c0.035-0.004,0.069-0.002,0.108,0.006l-0.145,0.648
		c-0.018-0.004-0.05-0.006-0.091-0.006h-0.086c-0.076,0-0.138,0-0.185,0.002c-0.049,0.004-0.107,0.014-0.179,0.031
		c-0.167,0.045-0.314,0.119-0.445,0.223c-0.13,0.105-0.243,0.23-0.337,0.375c-0.081,0.119-0.146,0.26-0.193,0.42
		c-0.048,0.158-0.084,0.307-0.112,0.443l-0.35,1.629h-0.599l0.763-3.68H150.729z"/>
	<path fill="#FFFFFF" d="M153.085,48.67c-0.076,0.107-0.158,0.199-0.249,0.277c-0.09,0.078-0.192,0.141-0.306,0.186
		c-0.114,0.045-0.248,0.068-0.398,0.068c-0.072,0-0.146-0.01-0.223-0.025c-0.074-0.018-0.141-0.039-0.198-0.068l0.107-0.49
		c0.047,0.027,0.104,0.051,0.171,0.07c0.065,0.02,0.124,0.029,0.171,0.029c0.137,0,0.249-0.037,0.335-0.111
		c0.084-0.072,0.163-0.168,0.233-0.287l0.371-0.605l-0.647-3.68h0.647l0.427,2.926h0.015l1.543-2.926h0.663l-2.435,4.299
		C153.236,48.451,153.161,48.564,153.085,48.67"/>
</g>
</svg>
